<svg xmlns="http://www.w3.org/2000/svg" width="950" height="209" viewBox="0 0 950 209">
  <defs>
    <linearGradient id="header-small-bow-a" x1=".652%" x2="97.899%" y1="37.921%" y2="37.921%">
      <stop offset="0%" stop-color="#FADACB"/>
      <stop offset="100%" stop-color="#F5F8F3"/>
    </linearGradient>
    <linearGradient id="header-small-bow-b" x1="0%" x2="96.285%" y1="43.155%" y2="43.155%">
      <stop offset="0%" stop-color="#885A7C"/>
      <stop offset="41.866%" stop-color="#4184B9"/>
      <stop offset="100%" stop-color="#02C1CE"/>
    </linearGradient>
  </defs>
  <g fill="none" fill-rule="evenodd">
    <path fill="#FCE5EB" d="M0,194.508029 C129.907812,209.277855 257.202801,212.757925 381.884967,204.948239 C506.567134,197.138553 622.088697,178.449243 728.449657,148.880308 L802,0 L0,9.31252203 L0,194.508029 Z" opacity=".656"/>
    <path fill="url(#header-small-bow-a)" d="M950,0 L950,30.3726382 L922.294915,79.201989 C737.482691,135.55441 583.20289,168.958709 459.455511,179.414886 C335.708133,189.871064 182.556295,182.443555 0,157.132361 L0,0 L950,0 Z" opacity=".656"/>
    <path fill="#E2EAE2" d="M878,0 L809.552012,119.647582 C628.99977,149.540626 480.084168,165.846678 362.805205,168.565739 C245.526242,171.2848 124.591174,161.235115 4.87387908e-14,138.416685 L0,0 L878,0 Z" opacity=".656"/>
    <path fill="url(#header-small-bow-b)" d="M829,0 L792.576593,81.435644 C600.531011,120.950876 453.537415,143.966325 351.595803,150.481992 C249.654192,156.99766 132.455591,150.868234 9.20374887e-14,132.093715 L0,0 L829,0 Z"/>
  </g>
</svg>
