<?xml version="1.0" encoding="UTF-8"?>
<svg width="32px" height="30px" viewBox="0 0 32 30" version="1.1" xmlns="http://www.w3.org/2000/svg" xmlns:xlink="http://www.w3.org/1999/xlink">
    <!-- Generator: Sketch 54.1 (76490) - https://sketchapp.com -->
    <title>Mask Copy</title>
    <desc>Created with Sketch.</desc>
    <defs>
        <path d="M192,17 C194.963547,24.3248408 200.89064,32 209.150739,32 C217.316256,32 224,25.2802548 224,17 C224,8.71974522 217.347783,2 209.150739,2 C200.922167,2 194.963547,9.67515924 192,17 Z" id="path-1"></path>
    </defs>
    <g id="Goede-header" stroke="none" stroke-width="1" fill="none" fill-rule="evenodd">
        <g id="Artboard" transform="translate(-1531.000000, -2667.000000)">
            <g id="Group-4" transform="translate(262.000000, 960.000000)">
                <g id="Group-2" transform="translate(1077.000000, 1705.000000)">
                    <mask id="mask-2" fill="white">
                        <use xlink:href="#path-1"></use>
                    </mask>
                    <use id="Mask-Copy" fill-opacity="0.24" fill="#2C2C2B" fill-rule="nonzero" transform="translate(208.000000, 17.000000) scale(-1, 1) rotate(180.000000) translate(-208.000000, -17.000000) " xlink:href="#path-1"></use>
                </g>
            </g>
        </g>
    </g>
</svg>