<?xml version="1.0" encoding="UTF-8"?>
<svg width="293px" height="72px" viewBox="0 0 293 72" version="1.1" xmlns="http://www.w3.org/2000/svg" xmlns:xlink="http://www.w3.org/1999/xlink">
    <!-- Generator: Sketch 54.1 (76490) - https://sketchapp.com -->
    <title>Definitief logo - Nigra</title>
    <desc>Created with Sketch.</desc>
    <defs>
        <linearGradient x1="-141.540527%" y1="50%" x2="379.492188%" y2="50%" id="linearGradient-1">
            <stop stop-color="#00B4FF" offset="0%"></stop>
            <stop stop-color="#00ACA0" offset="100%"></stop>
        </linearGradient>
        <linearGradient x1="-141.540527%" y1="50%" x2="379.492188%" y2="50%" id="linearGradient-2">
            <stop stop-color="#00B4FF" offset="0%"></stop>
            <stop stop-color="#00ACA0" offset="100%"></stop>
        </linearGradient>
        <linearGradient x1="-141.540527%" y1="50%" x2="379.492188%" y2="50%" id="linearGradient-3">
            <stop stop-color="#00B4FF" offset="0%"></stop>
            <stop stop-color="#00ACA0" offset="100%"></stop>
        </linearGradient>
        <linearGradient x1="-141.540527%" y1="50%" x2="379.492188%" y2="50%" id="linearGradient-4">
            <stop stop-color="#00B4FF" offset="0%"></stop>
            <stop stop-color="#00ACA0" offset="100%"></stop>
        </linearGradient>
        <linearGradient x1="-141.540527%" y1="50%" x2="379.492188%" y2="50%" id="linearGradient-5">
            <stop stop-color="#00B4FF" offset="0%"></stop>
            <stop stop-color="#00ACA0" offset="100%"></stop>
        </linearGradient>
        <linearGradient x1="-141.540527%" y1="50%" x2="379.492188%" y2="50%" id="linearGradient-6">
            <stop stop-color="#00B4FF" offset="0%"></stop>
            <stop stop-color="#00ACA0" offset="100%"></stop>
        </linearGradient>
    </defs>
    <g id="Symbols" stroke="none" stroke-width="1" fill="none" fill-rule="evenodd">
        <g id="Footer" transform="translate(-128.000000, -589.000000)" fill-rule="nonzero">
            <g id="Definitief-logo---Nigra" transform="translate(128.000000, 589.000000)">
                <path d="M125.812368,14.0248125 C128.041931,14.0248125 130.010589,14.4714368 131.694621,15.3646855 C133.378653,16.2579342 134.754341,17.473745 135.797967,19.0369302 C136.865311,20.6001154 137.671749,22.4114253 138.193562,24.4708598 C138.715375,26.5302943 139,28.763416 139,31.1454126 L139,56.9751875 L129.41762,56.9751875 L129.41762,31.170225 C129.41762,29.2100404 128.753494,27.5476053 127.425244,26.1581073 C126.14443,24.7686093 124.555273,24.0738604 122.634053,24.0738604 C120.712834,24.0738604 119.123676,24.7686093 117.842863,26.1581073 C116.514612,27.5476053 115.850487,29.2348529 115.850487,31.170225 L115.850487,57 L106.244388,57 L106.244388,31.170225 C106.244388,29.2100404 105.580263,27.5476053 104.252012,26.1581073 C103.611605,25.4385459 102.876324,24.8926717 102.046167,24.5701096 C101.21601,24.2475476 100.362135,24.0738604 99.4608217,24.0738604 C97.4921643,24.0738604 95.8555697,24.7686093 94.5747565,26.1581073 C93.2465057,27.5476053 92.5823803,29.2348529 92.5823803,31.170225 L92.5823803,57 L83,57 L83,15.1909983 L92.5823803,15.1909983 L92.5823803,18.8632429 C94.1241,17.473745 95.7606946,16.3075591 97.4447268,15.389498 C99.1524778,14.4714368 100.883947,14 102.639136,14 C105.034731,14 107.003388,14.4962493 108.545108,15.5135603 C110.086828,16.5060589 111.462516,17.9203693 112.695892,19.6820542 C114.142736,18.0692441 115.9928,16.7045586 118.29352,15.6376226 C120.59424,14.5706867 123.108429,14.0248125 125.812368,14.0248125 Z" id="Path" fill="url(#linearGradient-1)"></path>
                <path d="M167.80315,14 C170.708661,14 173.401575,14.5546778 175.88189,15.6640333 C178.338583,16.7733888 180.488189,18.2927235 182.283465,20.2461538 C184.07874,22.1995842 185.496063,24.4665281 186.488189,27.0711019 C187.503937,29.6756757 188,32.4731809 188,35.439501 C188,38.3575884 187.503937,41.1309771 186.488189,43.7355509 C185.472441,46.3401247 184.07874,48.6070686 182.283465,50.560499 C180.488189,52.5139293 178.338583,54.033264 175.88189,55.1426195 C173.425197,56.2519751 170.732283,56.8066528 167.80315,56.8066528 C164.566929,56.8066528 161.732283,56.1796258 159.299213,54.9255717 L162.724409,46.243659 C164,46.7742204 165.440945,47.0636175 167.023622,47.0636175 C168.559055,47.0636175 170.023622,46.7742204 171.393701,46.2195426 C172.76378,45.6407484 174.015748,44.7966736 175.125984,43.6632017 C177.346457,41.3962578 178.480315,38.6469854 178.480315,35.4636175 C178.480315,32.2079002 177.370079,29.4586279 175.125984,27.1675676 C172.787402,24.9006237 170.094488,23.7671518 167,23.7671518 C163.811024,23.7671518 161.11811,24.9006237 158.874016,27.1675676 C156.653543,29.4345114 155.543307,32.2079002 155.543307,35.4636175 L155.543307,52.5139293 L155.543307,72 L146,72 L146,15.0611227 L155.543307,15.0611227 L155.543307,18.3168399 C157.07874,17.0627859 158.850394,16.049896 160.88189,15.2299376 C162.889764,14.4099792 165.204724,14 167.80315,14 Z" id="Path" fill="url(#linearGradient-2)"></path>
                <path d="M196.5,0 L196.5,0 C199.549505,0 202,2.13740458 202,4.79728584 L202,4.79728584 C202,7.45716709 199.549505,9.59457167 196.5,9.59457167 L196.5,9.59457167 C193.450495,9.59457167 191,7.45716709 191,4.79728584 L191,4.79728584 C191,2.13740458 193.477723,0 196.5,0 Z M191,56 L191,15.9830365 L202,15.9830365 L202,55.9762511 L191,55.9762511 L191,56 Z" id="Shape" fill="url(#linearGradient-3)"></path>
                <path d="M230,15 C232.905512,15 235.645669,15.5571831 238.19685,16.6715493 C240.748031,17.7859155 242.968504,19.3121127 244.88189,21.2743662 C246.795276,23.2366197 248.283465,25.5138028 249.370079,28.1301408 C250.456693,30.7464789 251,33.5566197 251,36.536338 C251,39.4676056 250.456693,42.2535211 249.370079,44.8698592 C248.283465,47.4861972 246.795276,49.7633803 244.88189,51.7256338 C242.968504,53.6878873 240.748031,55.2140845 238.19685,56.3284507 C235.645669,57.4428169 232.905512,58 230,58 C227.070866,58 224.354331,57.4428169 221.80315,56.3284507 C219.251969,55.2140845 217.031496,53.6878873 215.11811,51.7256338 C213.204724,49.7633803 211.716535,47.4861972 210.629921,44.8698592 C209.543307,42.2535211 209,39.491831 209,36.536338 C209,33.5566197 209.543307,30.7464789 210.629921,28.1301408 C211.716535,25.5138028 213.204724,23.2366197 215.11811,21.2743662 C217.031496,19.3121127 219.251969,17.7859155 221.80315,16.6715493 C224.354331,15.5571831 227.094488,15 230,15 Z M230,24.7870423 C226.811024,24.7870423 224.11811,25.9256338 221.874016,28.2028169 C219.653543,30.48 218.543307,33.2659155 218.543307,36.536338 C218.543307,39.7583099 219.653543,42.4957746 221.874016,44.7729577 C222.937008,45.9115493 224.165354,46.783662 225.582677,47.3408451 C226.976378,47.9222535 228.464567,48.1887324 230,48.1887324 C231.535433,48.1887324 233,47.8980282 234.370079,47.3408451 C235.740157,46.7594366 236.992126,45.9115493 238.102362,44.7729577 C240.322835,42.4957746 241.433071,39.7340845 241.433071,36.536338 C241.433071,33.2659155 240.322835,30.5042254 238.102362,28.2028169 C235.787402,25.9498592 233.094488,24.7870423 230,24.7870423 Z" id="Shape" fill="url(#linearGradient-4)"></path>
                <path d="M275.606137,14 C278.223544,14 280.603006,14.5216638 282.744521,15.5401502 C284.886036,16.5834778 286.718222,17.9994223 288.241077,19.812825 C289.763932,21.6262276 290.929869,23.7377239 291.76268,26.1224726 C292.595492,28.5320624 293,31.090699 293,33.8232236 L293,57 L283.386976,57 L283.386976,33.8232236 C283.386976,31.0410168 282.458986,28.7307915 280.579211,26.8677065 C278.77082,24.9797805 276.581716,24.0109763 274.011897,24.0109763 C271.39449,24.0109763 269.18159,24.9549393 267.349405,26.8677065 C265.541014,28.7556326 264.613024,31.090699 264.613024,33.8232236 L264.613024,57 L255,57 L255,15.1675332 L264.613024,15.1675332 L264.613024,18.3471982 C266.064496,17.0554593 267.68253,16.0121317 269.49092,15.2172155 C271.323106,14.4222992 273.369443,14 275.606137,14 Z" id="Path" fill="url(#linearGradient-5)"></path>
                <path d="M55.716005,58 C50.0177772,58 43.1001756,55.0704388 38.0116347,47.4237875 C32.9230939,55.0704388 26.0054922,58 20.3072645,58 C9.09840486,58 0,48.3423788 0,36.5 C0,24.6327945 9.12185436,15 20.3072645,15 C25.4896033,15 30.3670987,17.1847575 34.4473112,21.2811778 L28.0455985,28.4064665 C25.6771993,26.0230947 23.0743051,24.8314088 20.283815,24.8314088 C14.2103952,24.8314088 9.23910184,30.0698614 9.23910184,36.5248268 C9.23910184,42.9549654 14.1869457,48.2182448 20.283815,48.2182448 C26.9903711,48.2182448 31.6333715,41.0681293 33.6031293,34.960739 C38.2930287,20.2632794 48.0949185,15.0248268 55.6925555,15.0248268 C66.9014151,15.0248268 75.99982,24.682448 75.99982,36.5248268 C76.046719,48.3423788 66.9248646,58 55.716005,58 Z M42.9594786,36.5 C45.1637313,42.2101617 49.5722368,48.193418 55.716005,48.193418 C61.7894247,48.193418 66.7607181,42.9549654 66.7607181,36.5 C66.7607181,30.0450346 61.8128742,24.806582 55.716005,24.806582 C49.5956863,24.806582 45.1637313,30.7898383 42.9594786,36.5 Z" id="Shape" fill="url(#linearGradient-6)"></path>
            </g>
        </g>
    </g>
</svg>