<svg xmlns="http://www.w3.org/2000/svg" xmlns:xlink="http://www.w3.org/1999/xlink" width="982" height="926" viewBox="0 0 982 926">
  <defs>
    <rect id="shape-bubble-full-a" width="982" height="927" x=".987" y=".416"/>
  </defs>
  <g fill="none" fill-rule="evenodd" transform="translate(-.987 -1.416)">
    <mask id="shape-bubble-full-b" fill="#fff">
      <use xlink:href="#shape-bubble-full-a"/>
    </mask>
    <use fill="#DCDCDC" fill-opacity="0" xlink:href="#shape-bubble-full-a"/>
    <path fill="#F6F1E9" d="M222.814339,1.41593506 L447.641432,1.41593506 C570.983338,5.14640381 664.460679,62.2840444 743.038026,148.861248 C822.884705,236.837011 889.631294,355.585728 935.698635,464.604614 C845.958734,688.744741 691.094667,902.665935 447.641432,902.665935 C323.147401,902.665935 191.700135,846.214763 100.959901,733.726482 C43.0136721,661.892067 -2.01275531,556.512947 -2.01275531,460.415935 C-2.01275531,370.88443 -2.01275531,217.88443 -2.01275531,1.41593506 L222.814339,1.41593506 L1033.98724,1.41593506 L1033.98724,955.415935 L-2.01275531,955.415935 L-2.01275531,1.41593506 L222.814339,1.41593506 Z" mask="url(#shape-bubble-full-b)"/>
  </g>
</svg>
